<?xml version="1.0" encoding="UTF-8" standalone="no"?>
<svg
   xmlns:dc="http://purl.org/dc/elements/1.1/"
   xmlns:cc="http://creativecommons.org/ns#"
   xmlns:rdf="http://www.w3.org/1999/02/22-rdf-syntax-ns#"
   xmlns:svg="http://www.w3.org/2000/svg"
   xmlns="http://www.w3.org/2000/svg"
   xmlns:sodipodi="http://sodipodi.sourceforge.net/DTD/sodipodi-0.dtd"
   xmlns:inkscape="http://www.inkscape.org/namespaces/inkscape"
   inkscape:version="1.0 (4035a4fb49, 2020-05-01)"
   sodipodi:docname="import.svg"
   xml:space="preserve"
   style="enable-background:new 0 0 122.88 110.9"
   viewBox="0 0 122.88 110.9"
   y="0px"
   x="0px"
   id="Layer_1"
   version="1.1"><metadata
     id="metadata13"><rdf:RDF><cc:Work
         rdf:about=""><dc:format>image/svg+xml</dc:format><dc:type
           rdf:resource="http://purl.org/dc/dcmitype/StillImage" /></cc:Work></rdf:RDF></metadata><defs
     id="defs11" /><sodipodi:namedview
     inkscape:current-layer="Layer_1"
     inkscape:window-maximized="0"
     inkscape:window-y="0"
     inkscape:window-x="0"
     inkscape:cy="55.450001"
     inkscape:cx="61.439999"
     inkscape:zoom="7.2137059"
     showgrid="false"
     id="namedview9"
     inkscape:window-height="877"
     inkscape:window-width="1587"
     inkscape:pageshadow="2"
     inkscape:pageopacity="0"
     guidetolerance="10"
     gridtolerance="10"
     objecttolerance="10"
     borderopacity="1"
     bordercolor="#666666"
     pagecolor="#ffffff" /><style
     id="style2"
     type="text/css">.st0{fill-rule:evenodd;clip-rule:evenodd;}</style><g
     style="fill:#0000ff"
     id="g6"><path
       style="fill:#0000ff"
       id="path4"
       d="M13.09,35.65h30.58V23.2l34.49,0v12.45l31.47,0L61.39,82.58L13.09,35.65L13.09,35.65z M61.44,97.88l47.51-0.14 l4.54-21.51l9.38,0.31v34.36L0,110.9V76.55l9.39-0.31l4.54,21.51L61.44,97.88L61.44,97.88L61.44,97.88z M43.67,0h34.49v4.62H43.67 V0L43.67,0z M43.67,9.32h34.49v9.44H43.67V9.32L43.67,9.32z"
       class="st0" /></g></svg>
