<?xml version="1.0" encoding="UTF-8" standalone="no"?>
<svg
   xmlns:dc="http://purl.org/dc/elements/1.1/"
   xmlns:cc="http://creativecommons.org/ns#"
   xmlns:rdf="http://www.w3.org/1999/02/22-rdf-syntax-ns#"
   xmlns:svg="http://www.w3.org/2000/svg"
   xmlns="http://www.w3.org/2000/svg"
   xmlns:sodipodi="http://sodipodi.sourceforge.net/DTD/sodipodi-0.dtd"
   xmlns:inkscape="http://www.inkscape.org/namespaces/inkscape"
   inkscape:version="1.0 (4035a4fb49, 2020-05-01)"
   sodipodi:docname="down-arrow-selected.svg"
   id="svg4"
   version="1.1"
   xml:space="preserve"
   enable-background="new 0 0 6 9"
   viewBox="0 0 5.8782291 4.612349"
   height="4.612349"
   width="5.8782291"
   y="0px"
   x="0px"><metadata
   id="metadata10"><rdf:RDF><cc:Work
       rdf:about=""><dc:format>image/svg+xml</dc:format><dc:type
         rdf:resource="http://purl.org/dc/dcmitype/StillImage" /><dc:title></dc:title></cc:Work></rdf:RDF></metadata><defs
   id="defs8" /><sodipodi:namedview
   inkscape:snap-object-midpoints="false"
   inkscape:snap-center="false"
   inkscape:snap-page="false"
   inkscape:current-layer="svg4"
   inkscape:window-maximized="0"
   inkscape:window-y="0"
   inkscape:window-x="0"
   inkscape:cy="3.4989434"
   inkscape:cx="0.57826706"
   inkscape:zoom="88.888889"
   showgrid="false"
   id="namedview6"
   inkscape:window-height="932"
   inkscape:window-width="1795"
   inkscape:pageshadow="2"
   inkscape:pageopacity="0"
   guidetolerance="10"
   gridtolerance="10"
   objecttolerance="10"
   borderopacity="1"
   bordercolor="#666666"
   pagecolor="#ffffff" />
  
<path
   id="path855"
   d="M 5.4548585,0.44668733 2.9469152,4.1889754 0.42337026,0.42340713 Z"
   style="fill:#3078e6;fill-opacity:1;stroke:#3078e6;stroke-width:0.846815;stroke-linecap:square;stroke-linejoin:round;stroke-miterlimit:4;stroke-dasharray:none;stroke-opacity:1" /></svg>
